{ 
    "ResourcesLocation" : "static/Resources",
    "Language" : "Spanish",
    "Theme" : "CarmineSD",
    "Images" : [ { 
        "Name" : "Group",
        "Type" : "I",
        "Guid" : "429d6190-65aa-4257-86db-fce0370ff650",
        "Location" : "CarmineSD/Group.png",
        "RenderingMode" : "automatic",
        "FlipsForRTL" : false
    } ]
}