{

"GxObject":{"ObjectType":"BusinessComponent","Name":"AEOMasterData","idConnectivitySupport":"idInherit","Structure":{"Levels":[{"Name":"Aeomasterdata","ParentLevel":"","LevelName":"AEOMasterData","Description":"AEO Master Data","Attributes":[{"Name":"IdentificationIssuingCountryCode","Caption":"Identification Issuing Country Code","default":"","SuperType":"CountryCode","SubtypeGroup":"AEOMasterDataCountry","IsKey":"true","ReadOnly":"false","AttributeType":"char","Description":"Identification Issuing Country Code","Length":"2","Decimals":"0","Signed":"false","AllowDBNulls":"false","InternalName":"IdentificationIssuingCountryCode","InputPicture":"","Type":"xs:string"},{"Name":"IdentificationIssuingCountryName","Caption":"Country Name","default":"","IsKey":"false","ReadOnly":"true","AttributeType":"svchar","Description":"Country Name","Length":"50","Decimals":"0","Signed":"false","AllowDBNulls":"true","InternalName":"IdentificationIssuingCountryName","DescriptionAtt":"true","InputPicture":"","Type":"xs:string"},{"Name":"PartieID","Caption":"Partie ID","default":"","IsKey":"true","ReadOnly":"false","AttributeType":"char","Description":"Partie ID","Length":"30","Decimals":"0","Signed":"false","AllowDBNulls":"false","Domain":"AEOPartieID","InternalName":"PartieID","InputPicture":"","Type":"xs:string"},{"Name":"PartieName","Caption":"Partie Name","default":"","IsKey":"false","ReadOnly":"false","AttributeType":"svchar","Description":"Partie Name","Length":"50","Decimals":"0","Signed":"false","AllowDBNulls":"false","Domain":"AEOPartieName","InternalName":"PartieName","InputPicture":"","Type":"xs:string"},{"Name":"PartieShortName","Caption":"Partie Short Name","default":"","IsKey":"false","ReadOnly":"false","AttributeType":"svchar","Description":"Partie Short Name","Length":"50","Decimals":"0","Signed":"false","AllowDBNulls":"false","Domain":"AEOPartieShortName","InternalName":"PartieShortName","InputPicture":"","Type":"xs:string"},{"Name":"PartieRoleCode","Caption":"Partie Role Code","default":"","IsKey":"false","ReadOnly":"false","AttributeType":"char","Description":"Partie Role Code","Length":"2","Decimals":"0","Signed":"false","AllowDBNulls":"false","Domain":"AEOPartiRoleCodeEdifact3035","InternalName":"PartieRoleCode","InputPicture":"","Type":"xs:string"}]}]},"Relations":{"ManyToOne":{"references":[{"Name":"CountryIdentificationIssuingCountryCo","BusinessComponent":"Country","LevelName":"AEOMasterData","Description":"Country","ForeignKey":{"KeyAttributes":[{"Name":"IdentificationIssuingCountryCo","Type":"char","AtributeSuperType":"CountryCode"}]},"InferredAttributes":{"Attributes":[{"Name":"IdentificationIssuingCountryNa","Type":"svchar","AtributeSuperType":"CountryName"}]}}]}}}
}
